…
As one might expect, there are numerous functions for evaluating model
performance in [`libml`](https://stufield.github.io/libml/dev/index.md).
Many S3 methods are provided to the S3 generic
`globalr::calc_predictions`,
e.g. [`calc_predictions.glm()`](https://stufield.github.io/libml/dev/reference/s3-calc_predictions.md).
The following are a few of the standard metrics:

### Confusion Matrix

``` r

pred_nb <- calc_predictions(nb, test)
pred_nb
#> # A tibble: 50 × 3
#>    pred_class prob_setosa prob_virginica
#>    <chr>            <dbl>          <dbl>
#>  1 virginica    0.00279           0.997 
#>  2 virginica    0.000252          1.000 
#>  3 virginica    0.000678          0.999 
#>  4 setosa       0.881             0.119 
#>  5 virginica    0.0000108         1.000 
#>  6 virginica    0.00365           0.996 
#>  7 setosa       0.944             0.0558
#>  8 virginica    0.000295          1.000 
#>  9 setosa       0.984             0.0162
#> 10 setosa       0.977             0.0233
#> # ℹ 40 more rows

calc_confusion(test$Species, pred_nb$prob_virginica,
               pos_class = "virginica", cutoff = 0.5)
#> ── Confusion ───────────────────────────────────────────────────────────────────────────────────────
#> 
#> Positive Class: virginica
#> 
#>            Predicted
#> Truth       setosa virginica
#>   setosa        19         8
#>   virginica      5        18

pred_rf <- calc_predictions(rf, test)
pred_rf
#> # A tibble: 50 × 3
#>    pred_class prob_setosa prob_virginica
#>    <chr>            <dbl>          <dbl>
#>  1 virginica        0.006          0.994
#>  2 virginica        0.348          0.652
#>  3 virginica        0.034          0.966
#>  4 setosa           0.606          0.394
#>  5 setosa           0.59           0.41 
#>  6 virginica        0.194          0.806
#>  7 setosa           0.586          0.414
#>  8 setosa           0.574          0.426
#>  9 setosa           0.578          0.422
#> 10 setosa           0.802          0.198
#> # ℹ 40 more rows
…
