Using Nested Tibbles for Univariate Analysis • libml
…
# each row represents a feature
length(feats)
#> [1] 40
nrow(t_tbl)
#> [1] 40

# the analysis table
t_tbl
#> # A tibble: 40 × 9
#>    feature     SeqId   TargetFullName         EntrezGeneSymbol UniProt t_stat  p_value     fdr  rank
#>    <chr>       <chr>   <chr>                  <chr>            <chr>   <list>    <dbl>   <dbl> <int>
#>  1 seq.1942.70 1942-70 Protein-kinase-subuni… JHQ8             Z6PS9G  <htest> 6.91e-8 2.76e-6     1
#>  2 seq.2802.68 2802-68 Protein-kinase-subuni… 4HG              NBXVHJ  <htest> 1.57e-6 2.95e-5     2
#>  3 seq.9251.29 9251-29 Protein-kinase-subuni… QKG              UL9R2V  <htest> 2.21e-6 2.95e-5     3
#>  4 seq.9608.12 9608-12 Protein-kinase-subuni… IHW              72CM6T  <htest> 1.71e-5 1.71e-4     4
#>  5 seq.5751.80 5751-80 Protein-kinase-subuni… NV6Y             OBX5GT  <htest> 3.63e-4 2.90e-3     5
#>  6 seq.3300.26 3300-26 Protein-kinase-subuni… G6Q              HPTSIG  <htest> 8.41e-2 4.49e-1     6
#>  7 seq.3459.49 3459-49 Protein-kinase-subuni… JP4B             OKGFQ2  <htest> 8.58e-2 4.49e-1     7
#>  8 seq.8142.63 8142-63 Protein-kinase-subuni… XOR              68Z14U  <htest> 9.06e-2 4.49e-1     8
#>  9 seq.1130.49 1130-49 Protein-kinase-subuni… X6K              IKSPO3  <htest> 1.01e-1 4.49e-1     9
#> 10 seq.3896.5  3896-5  Protein-kinase-subuni… BZFW             584QKS  <htest> 1.41e-1 5.00e-1    10
#> # ℹ 30 more rows
…
reshape data into long-format for plotting

plot_tbl <- undo_center_scale(data) |>                 # log-space; no center-scale
  select(class_response, all_of(target_map$feature)) |># top 9 features
  pivot_longer(cols = -class_response, names_to = "feature", values_to = "val") |>
  left_join(target_map) |>
  # order factor levels by 't_tbl' rank to order plots below
  mutate(Target = factor(Target, levels = target_map$Target))
#> Joining with `by = join_by(feature)`

plot_tbl
#> # A tibble: 900 × 4
#>    class_response feature       val Target                   
#>    <chr>          <chr>       <dbl> <fct>                    
#>  1 control        seq.1942.70  3.34 Protein-kinase-subunit-3 
#>  2 control        seq.2802.68  3.34 Protein-kinase-subunit-1 
#>  3 control        seq.9251.29  3.43 Protein-kinase-subunit-2 
#>  4 control        seq.9608.12  3.43 Protein-kinase-subunit-5 
#>  5 control        seq.5751.80  3.44 Protein-kinase-subunit-4 
#>  6 control        seq.3300.26  3.35 Protein-kinase-subunit-34
#>  7 control        seq.3459.49  3.36 Protein-kinase-subunit-6 
#>  8 control        seq.8142.63  3.31 Protein-kinase-subunit-30
#>  9 control        seq.1130.49  3.44 Protein-kinase-subunit-23
#> 10 control        seq.1942.70  3.40 Protein-kinase-subunit-3 
#> # ℹ 890 more rows
…
