Create ROC Data Table — create_roc_data • libml
…
    Author

    Stu Field

    Examples

n <- 200
withr::with_seed(22, {
  true <- sample(c("control", "disease"), n, replace = TRUE)
  pred <- runif(n)
})
roc_data <- create_roc_data(true, pred, "disease")
roc_data
#> # A tibble: 200 × 12
#>     cutoff    tp    fn    fp    tn sensitivity specificity   ppv
#>  *   <dbl> <dbl> <dbl> <dbl> <dbl>       <dbl>       <dbl> <dbl>
#>  1 0.00001    98     0   102     0       1          0      0.49 
#>  2 0.00504    98     0   102     0       1          0      0.49 
#>  3 0.0101     97     1   102     0       0.990      0      0.487
#>  4 0.0151     97     1   102     0       0.990      0      0.487
#>  5 0.0201     97     1   100     2       0.990      0.0196 0.492
#>  6 0.0251     97     1   100     2       0.990      0.0196 0.492
#>  7 0.0302     97     1    98     4       0.990      0.0392 0.497
#>  8 0.0352     97     1    98     4       0.990      0.0392 0.497
#>  9 0.0402     96     2    98     4       0.980      0.0392 0.495
#> 10 0.0452     94     4    97     5       0.959      0.0490 0.492
#> # ℹ 190 more rows
#> # ℹ 4 more variables: npv <dbl>, mcc <dbl>, perpD <dbl>, YoudenJ <dbl>

create_roc_data(true, pred, "disease", do.ci = TRUE)
#> # A tibble: 200 × 16
#>     cutoff    tp    fn    fp    tn sensitivity specificity   ppv
#>  *   <dbl> <dbl> <dbl> <dbl> <dbl>       <dbl>       <dbl> <dbl>
#>  1 0.00001    98     0   102     0       1          0      0.49 
#>  2 0.00504    98     0   102     0       1          0      0.49 
#>  3 0.0101     97     1   102     0       0.990      0      0.487
#>  4 0.0151     97     1   102     0       0.990      0      0.487
#>  5 0.0201     97     1   100     2       0.990      0.0196 0.492
#>  6 0.0251     97     1   100     2       0.990      0.0196 0.492
#>  7 0.0302     97     1    98     4       0.990      0.0392 0.497
#>  8 0.0352     97     1    98     4       0.990      0.0392 0.497
#>  9 0.0402     96     2    98     4       0.980      0.0392 0.495
#> 10 0.0452     94     4    97     5       0.959      0.0490 0.492
#> # ℹ 190 more rows
#> # ℹ 8 more variables: npv <dbl>, mcc <dbl>, perpD <dbl>,
#> #   YoudenJ <dbl>, sens_lowerCI <dbl>, sens_upperCI <dbl>,
#> #   spec_lowerCI <dbl>, spec_upperCI <dbl>
create_roc_data(true, pred, "disease", include.auc = TRUE)
#> # A tibble: 200 × 13
#>      auc  cutoff    tp    fn    fp    tn sensitivity specificity   ppv
#>  * <dbl>   <dbl> <dbl> <dbl> <dbl> <dbl>       <dbl>       <dbl> <dbl>
#>  1 0.559 0.00001    98     0   102     0       1          0      0.49 
#>  2 0.559 0.00504    98     0   102     0       1          0      0.49 
#>  3 0.559 0.0101     97     1   102     0       0.990      0      0.487
#>  4 0.559 0.0151     97     1   102     0       0.990      0      0.487
#>  5 0.559 0.0201     97     1   100     2       0.990      0.0196 0.492
#>  6 0.559 0.0251     97     1   100     2       0.990      0.0196 0.492
#>  7 0.559 0.0302     97     1    98     4       0.990      0.0392 0.497
#>  8 0.559 0.0352     97     1    98     4       0.990      0.0392 0.497
#>  9 0.559 0.0402     96     2    98     4       0.980      0.0392 0.495
#> 10 0.559 0.0452     94     4    97     5       0.959      0.0490 0.492
#> # ℹ 190 more rows
#> # ℹ 4 more variables: npv <dbl>, mcc <dbl>, perpD <dbl>, YoudenJ <dbl>
…
