Create a Training Data Object — create_train • libml
…
    Examples

# New "tr_data" object with default factor levels
classes <- c("setosa", "versicolor")
tr <- create_train(iris, Species %in% classes, group_var = Species)
tr
#> ══ Training Data Object ═══════════════════════════════════════════════
#> • response        Species
#> • class labels    'setosa', 'versicolor'
#> • counts          [50, 50]
#> • factor          TRUE
#> • n               2
#> ───────────────────────────────────────────────────────────────────────
#> # A tibble: 100 × 5
#>    Sepal.Length Sepal.Width Petal.Length Petal.Width Species
#>  *        <dbl>       <dbl>        <dbl>       <dbl> <fct>  
#>  1          5.1         3.5          1.4         0.2 setosa 
#>  2          4.9         3            1.4         0.2 setosa 
#>  3          4.7         3.2          1.3         0.2 setosa 
#>  4          4.6         3.1          1.5         0.2 setosa 
#>  5          5           3.6          1.4         0.2 setosa 
#>  6          5.4         3.9          1.7         0.4 setosa 
#>  7          4.6         3.4          1.4         0.3 setosa 
#>  8          5           3.4          1.5         0.2 setosa 
#>  9          4.4         2.9          1.4         0.2 setosa 
#> 10          4.9         3.1          1.5         0.1 setosa 
#> # ℹ 90 more rows
…
# with re-naming factors
tr2 <- create_train(iris, Species %in% classes,
                    group_var = Species, classes = rev(classes))
#> • Note: Class order is non-alphabetic: 'versicolor > setosa'
tr2
#> ══ Training Data Object ═══════════════════════════════════════════════
#> • response        Species
#> • class labels    'versicolor', 'setosa'
#> • counts          [50, 50]
#> • factor          TRUE
#> • n               2
#> ───────────────────────────────────────────────────────────────────────
#> # A tibble: 100 × 5
#>    Sepal.Length Sepal.Width Petal.Length Petal.Width Species   
#>  *        <dbl>       <dbl>        <dbl>       <dbl> <fct>     
#>  1          5.1         3.5          1.4         0.2 versicolor
#>  2          4.9         3            1.4         0.2 versicolor
#>  3          4.7         3.2          1.3         0.2 versicolor
#>  4          4.6         3.1          1.5         0.2 versicolor
#>  5          5           3.6          1.4         0.2 versicolor
#>  6          5.4         3.9          1.7         0.4 versicolor
#>  7          4.6         3.4          1.4         0.3 versicolor
#>  8          5           3.4          1.5         0.2 versicolor
#>  9          4.4         2.9          1.4         0.2 versicolor
#> 10          4.9         3.1          1.5         0.1 versicolor
#> # ℹ 90 more rows
…
