Select Model Features — select_features • libml
…
# set up training and test data:
idx   <- sample.int(nrow(tr_iris), size = 90L)
train <- tr_iris[idx, ]
test  <- tibble::as_tibble(tr_iris[-idx, ])

lr <- fit_logistic(train)
select_features(lr, train)
#> ══ Training Data Object ═══════════════════════════════════════════════
#> • response        Species
#> • class labels    'setosa', 'virginica'
#> • counts          [50, 50]
#> • factor          TRUE
#> • n               2
#> ───────────────────────────────────────────────────────────────────────
#> # A tibble: 90 × 4
#>    Sepal.Length Sepal.Width Petal.Length Petal.Width
#>           <dbl>       <dbl>        <dbl>       <dbl>
#>  1         5.75        3.83        0.826     -0.570 
#>  2         7.08        3.73        6.54       3.07  
#>  3         5.23        3.14        1.23       1.08  
#>  4         6.73        3.01        4.13       2.89  
#>  5         7.76        1.73        7.75       1.93  
#>  6         4.93        3.81        1.97       0.955 
#>  7         4.78        3.09        1.61       1.02  
#>  8         4.99        3.35        1.06      -0.757 
#>  9         5.34        3.56        6.07       1.91  
#> 10         4.84        3.78        1.79       0.0803
#> # ℹ 80 more rows
…
