Plot Empirical ROC Curve — plot_emp_roc • libml
…
#> 14 control  0.141102184
#> 33 control  0.089221718
#> 77 disease  0.020540406
#> 46 control  0.008477501
#> 90 disease -0.002905448
#> 30 control -0.004121896
#> 9  control -0.202210335
#> ══ Parameters ═════════════════════════════════════════════════════════
#> † pos_class  ❯ disease
#> † boot_auc   ❯ FALSE
#> † outline    ❯ TRUE
#> † cutoff     ❯ 0.5
#> † add        ❯ 0
#> ═══════════════════════════════════════════════════════════════════════
#> # A tibble: 100 × 12
#>    cutoff    tp    fn    fp    tn sensitivity specificity   ppv   npv
#>     <dbl> <dbl> <dbl> <dbl> <dbl>       <dbl>       <dbl> <dbl> <dbl>
#>  1  1.08      1    49     0    50        0.02        1    1     0.505
#>  2  1.01      2    48     0    50        0.04        1    1     0.510
#>  3  0.928     3    47     0    50        0.06        1    1     0.515
#>  4  0.914     4    46     0    50        0.08        1    1     0.521
#>  5  0.843     5    45     0    50        0.1         1    1     0.526
#>  6  0.816     6    44     0    50        0.12        1    1     0.532
#>  7  0.808     7    43     0    50        0.14        1    1     0.538
#>  8  0.794     8    42     0    50        0.16        1    1     0.543
#>  9  0.790     8    42     1    49        0.16        0.98 0.889 0.538
#> 10  0.757     9    41     1    49        0.18        0.98 0.9   0.544
#> # ℹ 90 more rows
#> # ℹ 3 more variables: mcc <dbl>, perpD <dbl>, YoudenJ <dbl>
…
