…
``` r
if (FALSE) { # \dontrun{
  ?iris
} # }

# print
tr_iris
#> ══ Training Data Object ═══════════════════════════════════════════════
#> • response        Species
#> • class labels    'setosa', 'virginica'
#> • counts          [50, 50]
#> • factor          TRUE
#> • n               2
#> ───────────────────────────────────────────────────────────────────────
#> # A tibble: 100 × 5
#>    Sepal.Length Sepal.Width Petal.Length Petal.Width Species  
#>           <dbl>       <dbl>        <dbl>       <dbl> <fct>    
#>  1         4.16        3.47         1.77       0.483 setosa   
#>  2         7.25        3.85         5.47       2.16  virginica
#>  3         6.82        3.20         6.35       1.96  virginica
#>  4         6.81        2.33         5.44       1.25  virginica
#>  5         7.31        2.58         4.77       3.26  setosa   
#>  6         5.72        2.83         2.26      -0.248 setosa   
#>  7         6.91        2.47         5.78       1.56  virginica
#>  8         6.16        2.77         4.77       2.61  virginica
#>  9         7.27        3.09         5.55       2.76  setosa   
#> 10         7.12        3.39         5.90       2.14  virginica
#> # ℹ 90 more rows
```
